Olympic Athletes and Medals
…
The shortest competitor was Rosario Briones of Mexico, competing in the 1968 Summer Gymnastics Women’s Individual All-Around. She stood at 127cm (4ft, 2in).

The tallest was Yao Ming of China, competing in to 2000 Summer Men’s Basketball event. He was 226cm (7ft, 5in).

Which events / sports have the most competitors?

Code

olympics |> 
  distinct(id, .keep_all = TRUE) |> 
  group_by(sport) |> 
  summarise(count = n()) |> 
  arrange(desc(count)) 

# A tibble: 66 × 2
   sport      count
   <chr>      <int>
 1 Athletics  21980
 2 Swimming    8642
 3 Rowing      7669
 4 Football    6158
 5 Cycling     5789
 6 Boxing      5259
 7 Wrestling   4965
 8 Shooting    4858
 9 Sailing     4465
10 Gymnastics  4107
# ℹ 56 more rows
Athletics (track and field) has had the most competitors, at 21,980 individual competitors (16% of all Olympic athletes).

The Olympic sport with the least number of competitors? Aeronautics, with only one competitor, Switzerland’s Hermann Schreiber. He won gold.

Which countries have sent the most athletes to the Olympics?

Code

olympics |> 
  distinct(id, .keep_all = TRUE) |> 
  group_by(team) |> 
  summarise(count = n()) |> 
  arrange(desc(count)) 

# A tibble: 861 × 2
   team          count
   <chr>         <int>
 1 United States  9400
 2 Great Britain  5899
 3 France         5875
 4 Italy          4810
 5 Canada         4684
 6 Germany        4500
 7 Japan          4049
 8 Australia      3768
 9 Sweden         3631
10 Poland         2961
# ℹ 851 more rows
…
Which athlete has won the most gold medals? Silver? Bronze? Total medals?

Code

olympics |> 
  filter(!is.na(medal)) |> 
  group_by(name) |> 
  summarise(gold = sum(medal == "Gold", na.rm = TRUE),
            silver = sum(medal == "Silver", na.rm = TRUE),
            bronze = sum(medal == "Bronze", na.rm = TRUE),
            total = gold + silver + bronze
  ) |> 
  arrange(desc(total)) 

# A tibble: 28,202 × 5
   name                                  gold silver bronze total
   <chr>                                <int>  <int>  <int> <int>
 1 Michael Fred Phelps, II                 23      3      2    28
 2 Larysa Semenivna Latynina (Diriy-)       9      5      4    18
 3 Nikolay Yefimovich Andrianov             7      5      3    15
 4 Borys Anfiyanovych Shakhlin              7      4      2    13
 5 Edoardo Mangiarotti                      6      5      2    13
 6 Ole Einar Bjrndalen                      8      4      1    13
 7 Takashi Ono                              5      4      4    13
 8 Aleksey Yuryevich Nemov                  4      2      6    12
 9 Birgit Fischer-Schmidt                   8      4      0    12
10 Dara Grace Torres (-Hoffman, -Minas)     4      4      4    12
# ℹ 28,192 more rows
…
Which country/team has won the most medals overall?

Code

olympics |> 
  filter(!is.na(medal)) |> 
  group_by(team) |> 
  summarise(gold = sum(medal == "Gold", na.rm = TRUE),
            silver = sum(medal == "Silver", na.rm = TRUE),
            bronze = sum(medal == "Bronze", na.rm = TRUE),
            total = gold + silver + bronze
  ) |> 
  arrange(desc(total)) 

# A tibble: 425 × 5
   team           gold silver bronze total
   <chr>         <int>  <int>  <int> <int>
 1 United States  2529   1559   1287  5375
 2 Soviet Union   1080    732    689  2501
 3 Germany         721    651    711  2083
 4 Great Britain   543    604    594  1741
 5 France          461    525    594  1580
 6 Italy           549    526    502  1577
 7 Sweden          451    482    509  1442
 8 Australia       344    453    513  1310
 9 Canada          438    423    420  1281
10 Russia          390    367    401  1158
# ℹ 415 more rows
…
Which sport has the highest number of medals awarded?

Code

olympics |> 
  filter(!is.na(medal)) |> 
  group_by(sport) |> 
  summarise(gold = sum(medal == "Gold", na.rm = TRUE),
            silver = sum(medal == "Silver", na.rm = TRUE),
            bronze = sum(medal == "Bronze", na.rm = TRUE),
            total = gold + silver + bronze
  ) |> 
  arrange(desc(total)) 

# A tibble: 66 × 5
   sport       gold silver bronze total
   <chr>      <int>  <int>  <int> <int>
 1 Athletics   1339   1334   1296  3969
 2 Swimming    1099    993    956  3048
 3 Rowing       978    977    990  2945
 4 Gymnastics   791    746    719  2256
 5 Fencing      594    583    566  1743
 6 Football     515    513    543  1571
 7 Ice Hockey   508    515    507  1530
 8 Hockey       518    498    512  1528
 9 Wrestling    413    415    468  1296
10 Cycling      424    425    414  1263
# ℹ 56 more rows
…
Code

olympics |> 
  filter(!is.na(medal)) |> 
  group_by(team, sport) |> 
  summarise(total_medals = n()) |> 
  arrange(sport, desc(total_medals)) |> 
  ungroup() |> 
  group_by(sport) |> 
  mutate(total_sport_medals = sum(total_medals)) |> 
  mutate(percentage_top = total_medals / total_sport_medals * 100) |> 
  filter(percentage_top >= 25,
         total_medals >= 10) 

# A tibble: 23 × 5
# Groups:   sport [20]
   team                     sport total_medals total_sport_medals percentage_top
   <chr>                    <chr>        <int>              <int>          <dbl>
 1 Austria                  Alpi…          114                428           26.6
 2 Great Britain            Alpi…           12                 25           48  
 3 United States            Athl…         1071               3969           27.0
 4 China                    Badm…           64                168           38.1
 5 Cuba                     Base…          112                336           33.3
 6 United States            Bask…          341               1080           31.6
 7 Brazil                   Beac…           26                 72           36.1
 8 United States            Beac…           20                 72           27.8
 9 Devon and Somerset Wand… Cric…           12                 24           50  
10 Union des Socits Franai… Cric…           12                 24           50  
# ℹ 13 more rows
…
Code

olympics |> 
  filter(!is.na(medal)) |> 
  group_by(sex, sport) |> 
  summarise(total_medals = n()) |> 
  arrange(sex, desc(total_medals)) |> 
  ungroup() |> 
  group_by(sport) |> 
  mutate(total_sport_medals = sum(total_medals)) |> 
  mutate(percentage_top = total_medals / total_sport_medals * 100) |> 
  filter(percentage_top > 50,
         total_medals >= 10) 

# A tibble: 52 × 5
# Groups:   sport [52]
   sex   sport                 total_medals total_sport_medals percentage_top
   <chr> <chr>                        <int>              <int>          <dbl>
 1 F     Synchronized Swimming          215                215          100  
 2 F     Softball                       179                179          100  
 3 F     Rhythmic Gymnastics            132                132          100  
 4 M     Athletics                     2694               3969           67.9
 5 M     Rowing                        2225               2945           75.6
 6 M     Swimming                      1674               3048           54.9
 7 M     Gymnastics                    1555               2256           68.9
 8 M     Fencing                       1394               1743           80.0
 9 M     Football                      1269               1571           80.8
10 M     Ice Hockey                    1230               1530           80.4
# ℹ 42 more rows
…
